
1(12-23 01:49:42):CreateGame ok
2(12-23 01:49:42):LoadSetup ok
3(12-23 01:49:42):Init begin...
4(12-23 01:49:43):Init package file OK!
5(12-23 01:49:43):Init Input OK!
6(12-23 01:49:43):Init Audio Engine OK!
7(12-23 01:49:43):Init Net OK!
8(12-23 01:49:43):Init Graphics OK!
9(12-23 01:49:43):MaxSW2DChannels:16,MaxHW2DChannels:16,MaxHW3DChannels:16,TotalHWChannel:64,TotalChannel:80.
10(12-23 01:49:44):Init Interface OK!
11(12-23 01:49:47):Init OK!
12(12-23 01:49:47):All Init ok
13(12-23 01:50:21):the Client socket thread start.
14(12-23 01:50:21):the Client socket Net_main_thread start.
15(12-23 01:50:21):FD_WRITE Event OK!
16(12-23 01:51:07):the Client socket thread start.
17(12-23 01:51:07):the Client socket Net_main_thread start.
18(12-23 01:51:07):the Client socket thread Quit.
19(12-23 01:51:07):the Client socket Net_main_thread Quit.
20(12-23 01:51:07):FD_WRITE Event OK!
21(12-23 01:51:07):Half-baked MSG m_nSize = 818,Point = 642,m_nBufferSize =1048576
22(12-23 01:51:07):Half-baked MSG m_nSize = 2278,Point = 0,m_nBufferSize =1048576
23(12-23 01:51:07):Half-baked MSG m_nSize = 2920,Point = 0,m_nBufferSize =1048576
24(12-23 01:51:07):Half-baked MSG m_nSize = 4380,Point = 0,m_nBufferSize =1048576
25(12-23 01:51:07):Half-baked MSG m_nSize = 5840,Point = 0,m_nBufferSize =1048576
26(12-23 01:51:07):Half-baked MSG m_nSize = 8760,Point = 0,m_nBufferSize =1048576
27(12-23 01:51:07):Half-baked MSG m_nSize = 16060,Point = 0,m_nBufferSize =1048576
28(12-23 01:51:07):Half-baked MSG m_nSize = 58,Point = 17462,m_nBufferSize =1048576
29(12-23 01:51:09):Half-baked MSG m_nSize = 64,Point = 1396,m_nBufferSize =1048576
30(12-23 01:51:42):Half-baked MSG m_nSize = 1460,Point = 0,m_nBufferSize =1048576
31(12-23 01:53:13):Half-baked MSG m_nSize = 24,Point = 1436,m_nBufferSize =1048576
32(12-23 01:56:02):Half-baked MSG m_nSize = 79,Point = 1381,m_nBufferSize =1048576
33(12-23 01:57:02):Half-baked MSG m_nSize = 79,Point = 1381,m_nBufferSize =1048576
34(12-23 01:57:02):Half-baked MSG m_nSize = 387,Point = 1152,m_nBufferSize =1048576
35(12-23 01:57:02):Half-baked MSG m_nSize = 79,Point = 1381,m_nBufferSize =1048576
36(12-23 02:00:41):Half-baked MSG m_nSize = 63,Point = 1397,m_nBufferSize =1048576
37(12-23 02:00:41):Half-baked MSG m_nSize = 79,Point = 1381,m_nBufferSize =1048576
38(12-23 02:00:41):Half-baked MSG m_nSize = 462,Point = 998,m_nBufferSize =1048576
39(12-23 02:00:41):Half-baked MSG m_nSize = 79,Point = 1381,m_nBufferSize =1048576
40(12-23 02:00:41):Half-baked MSG m_nSize = 79,Point = 1381,m_nBufferSize =1048576
41(12-23 02:00:41):Half-baked MSG m_nSize = 268,Point = 1192,m_nBufferSize =1048576
42(12-23 02:00:46):Half-baked MSG m_nSize = 46,Point = 1414,m_nBufferSize =1048576
43(12-23 02:01:16):the Client socket thread Quit.
44(12-23 02:01:16):the Client socket Net_main_thread Quit.
45(12-23 02:01:17):the Client socket thread start.
46(12-23 02:01:17):the Client socket Net_main_thread start.
47(12-23 02:01:17):FD_WRITE Event OK!
48(12-23 02:01:19):the Client socket thread start.
49(12-23 02:01:19):the Client socket Net_main_thread start.
50(12-23 02:01:19):the Client socket thread Quit.
51(12-23 02:01:19):FD_WRITE Event OK!
52(12-23 02:01:19):the Client socket Net_main_thread Quit.
53(12-23 02:01:19):Half-baked MSG m_nSize = 818,Point = 642,m_nBufferSize =1048576
54(12-23 02:01:19):Half-baked MSG m_nSize = 2278,Point = 0,m_nBufferSize =1048576
55(12-23 02:01:19):Half-baked MSG m_nSize = 1460,Point = 0,m_nBufferSize =1048576
56(12-23 02:01:19):Half-baked MSG m_nSize = 4380,Point = 0,m_nBufferSize =1048576
57(12-23 02:01:19):Half-baked MSG m_nSize = 5840,Point = 0,m_nBufferSize =1048576
58(12-23 02:01:19):Half-baked MSG m_nSize = 7300,Point = 0,m_nBufferSize =1048576
59(12-23 02:01:19):Half-baked MSG m_nSize = 10220,Point = 0,m_nBufferSize =1048576
60(12-23 02:01:19):Half-baked MSG m_nSize = 11680,Point = 0,m_nBufferSize =1048576
61(12-23 02:01:19):Half-baked MSG m_nSize = 13140,Point = 0,m_nBufferSize =1048576
62(12-23 02:01:19):Half-baked MSG m_nSize = 14600,Point = 0,m_nBufferSize =1048576
63(12-23 02:01:19):Half-baked MSG m_nSize = 16060,Point = 0,m_nBufferSize =1048576
64(12-23 02:01:19):Half-baked MSG m_nSize = 18,Point = 17502,m_nBufferSize =1048576
65(12-23 02:01:21):Start Play Region Sound.(filename:sounds/regions/20000/20001.wav).
66(12-23 02:01:21):Start Play Region Sound.(filename:sounds/regions/20000/20001.wav).
67(12-23 02:01:21):Start Play Region Sound.(filename:sounds/regions/20000/20001.wav).
68(12-23 02:01:21):Half-baked MSG m_nSize = 79,Point = 1381,m_nBufferSize =1048576
69(12-23 02:01:21):Half-baked MSG m_nSize = 79,Point = 1381,m_nBufferSize =1048576
70(12-23 02:01:21):Half-baked MSG m_nSize = 79,Point = 1381,m_nBufferSize =1048576
71(12-23 02:01:21):Half-baked MSG m_nSize = 504,Point = 956,m_nBufferSize =1048576
72(12-23 02:01:21):Half-baked MSG m_nSize = 1964,Point = 0,m_nBufferSize =1048576
73(12-23 02:01:21):Half-baked MSG m_nSize = 3424,Point = 0,m_nBufferSize =1048576
74(12-23 02:01:21):Half-baked MSG m_nSize = 4884,Point = 0,m_nBufferSize =1048576
75(12-23 02:01:58):the Client socket thread Quit.
76(12-23 02:01:58):the Client socket Net_main_thread Quit.
77(12-23 02:01:58):the Client socket thread start.
78(12-23 02:01:58):the Client socket Net_main_thread start.
79(12-23 02:01:58):FD_WRITE Event OK!
80(12-23 02:02:01):the Client socket thread start.
81(12-23 02:02:01):the Client socket Net_main_thread start.
82(12-23 02:02:01):the Client socket thread Quit.
83(12-23 02:02:01):FD_WRITE Event OK!
84(12-23 02:02:01):the Client socket Net_main_thread Quit.
85(12-23 02:02:01):Half-baked MSG m_nSize = 818,Point = 642,m_nBufferSize =1048576
86(12-23 02:02:01):Half-baked MSG m_nSize = 2278,Point = 0,m_nBufferSize =1048576
87(12-23 02:02:01):Half-baked MSG m_nSize = 1460,Point = 0,m_nBufferSize =1048576
88(12-23 02:02:01):Half-baked MSG m_nSize = 4380,Point = 0,m_nBufferSize =1048576
89(12-23 02:02:01):Half-baked MSG m_nSize = 5840,Point = 0,m_nBufferSize =1048576
90(12-23 02:02:02):Half-baked MSG m_nSize = 7300,Point = 0,m_nBufferSize =1048576
91(12-23 02:02:02):Half-baked MSG m_nSize = 10220,Point = 0,m_nBufferSize =1048576
92(12-23 02:02:02):Half-baked MSG m_nSize = 11680,Point = 0,m_nBufferSize =1048576
93(12-23 02:02:02):Half-baked MSG m_nSize = 13140,Point = 0,m_nBufferSize =1048576
94(12-23 02:02:02):Half-baked MSG m_nSize = 14600,Point = 0,m_nBufferSize =1048576
95(12-23 02:02:02):Half-baked MSG m_nSize = 16060,Point = 0,m_nBufferSize =1048576
96(12-23 02:02:02):Half-baked MSG m_nSize = 18,Point = 17502,m_nBufferSize =1048576
97(12-23 02:02:02):Start Play Region Sound.(filename:sounds/regions/20000/20001.wav).
98(12-23 02:02:02):Start Play Region Sound.(filename:sounds/regions/20000/20001.wav).
99(12-23 02:02:02):Start Play Region Sound.(filename:sounds/regions/20000/20001.wav).
100(12-23 02:02:02):Half-baked MSG m_nSize = 79,Point = 1381,m_nBufferSize =1048576
101(12-23 02:02:02):Half-baked MSG m_nSize = 770,Point = 690,m_nBufferSize =1048576
102(12-23 02:02:02):Half-baked MSG m_nSize = 3690,Point = 0,m_nBufferSize =1048576
103(12-23 02:02:02):Half-baked MSG m_nSize = 5150,Point = 0,m_nBufferSize =1048576
104(12-23 02:02:09):Half-baked MSG m_nSize = 79,Point = 1381,m_nBufferSize =1048576
105(12-23 02:02:09):Half-baked MSG m_nSize = 79,Point = 1381,m_nBufferSize =1048576
106(12-23 02:02:09):Half-baked MSG m_nSize = 79,Point = 1381,m_nBufferSize =1048576
107(12-23 02:02:09):Half-baked MSG m_nSize = 79,Point = 1381,m_nBufferSize =1048576
108(12-23 02:02:13):Half-baked MSG m_nSize = 14,Point = 1446,m_nBufferSize =1048576
109(12-23 02:02:13):Half-baked MSG m_nSize = 79,Point = 1381,m_nBufferSize =1048576
110(12-23 02:02:13):Half-baked MSG m_nSize = 79,Point = 1381,m_nBufferSize =1048576
111(12-23 02:02:21):the Client socket thread Quit.
112(12-23 02:02:21):the Client socket Net_main_thread Quit.