
1(12-19 21:59:54):CreateGame ok
2(12-19 21:59:54):LoadSetup ok
3(12-19 21:59:54):Init begin...
4(12-19 21:59:55):Init package file OK!
5(12-19 21:59:55):Init Input OK!
6(12-19 21:59:55):Init Audio Engine OK!
7(12-19 21:59:55):Init Net OK!
8(12-19 21:59:56):Init Graphics OK!
9(12-19 21:59:56):MaxSW2DChannels:16,MaxHW2DChannels:16,MaxHW3DChannels:16,TotalHWChannel:64,TotalChannel:80.
10(12-19 21:59:56):Init Interface OK!
11(12-19 21:59:59):Init OK!
12(12-19 21:59:59):All Init ok
13(12-19 22:00:12):the Client socket thread start.
14(12-19 22:00:12):the Client socket Net_main_thread start.
15(12-19 22:00:13):FD_WRITE Event OK!
16(12-19 22:00:24):the Client socket thread start.
17(12-19 22:00:24):the Client socket Net_main_thread start.
18(12-19 22:00:24):the Client socket thread Quit.
19(12-19 22:00:24):FD_WRITE Event OK!
20(12-19 22:00:24):the Client socket Net_main_thread Quit.
21(12-19 22:00:24):Half-baked MSG m_nSize = 815,Point = 645,m_nBufferSize =1048576
22(12-19 22:00:24):Half-baked MSG m_nSize = 2275,Point = 0,m_nBufferSize =1048576
23(12-19 22:00:24):Half-baked MSG m_nSize = 1460,Point = 0,m_nBufferSize =1048576
24(12-19 22:00:24):Half-baked MSG m_nSize = 2920,Point = 0,m_nBufferSize =1048576
25(12-19 22:00:24):Half-baked MSG m_nSize = 4380,Point = 0,m_nBufferSize =1048576
26(12-19 22:00:24):Half-baked MSG m_nSize = 5840,Point = 0,m_nBufferSize =1048576
27(12-19 22:00:24):Half-baked MSG m_nSize = 7300,Point = 0,m_nBufferSize =1048576
28(12-19 22:00:24):Half-baked MSG m_nSize = 10220,Point = 0,m_nBufferSize =1048576
29(12-19 22:00:24):Half-baked MSG m_nSize = 11680,Point = 0,m_nBufferSize =1048576
30(12-19 22:00:24):Half-baked MSG m_nSize = 13140,Point = 0,m_nBufferSize =1048576
31(12-19 22:00:24):Half-baked MSG m_nSize = 14600,Point = 0,m_nBufferSize =1048576
32(12-19 22:00:24):Half-baked MSG m_nSize = 16060,Point = 0,m_nBufferSize =1048576
33(12-19 22:00:26):Half-baked MSG m_nSize = 73,Point = 1387,m_nBufferSize =1048576
34(12-19 22:00:26):Half-baked MSG m_nSize = 45,Point = 1415,m_nBufferSize =1048576
35(12-19 22:00:26):Half-baked MSG m_nSize = 941,Point = 564,m_nBufferSize =1048576
36(12-19 22:00:26):Half-baked MSG m_nSize = 2401,Point = 0,m_nBufferSize =1048576
37(12-19 22:00:26):Half-baked MSG m_nSize = 3861,Point = 0,m_nBufferSize =1048576
38(12-19 22:00:26):Half-baked MSG m_nSize = 5321,Point = 0,m_nBufferSize =1048576
39(12-19 22:00:32):Half-baked MSG m_nSize = 201,Point = 1259,m_nBufferSize =1048576
40(12-19 22:00:36):Half-baked MSG m_nSize = 18,Point = 1442,m_nBufferSize =1048576
41(12-19 22:00:37):Half-baked MSG m_nSize = 73,Point = 1387,m_nBufferSize =1048576
42(12-19 22:00:37):Half-baked MSG m_nSize = 256,Point = 1204,m_nBufferSize =1048576
43(12-19 22:00:37):Half-baked MSG m_nSize = 73,Point = 1387,m_nBufferSize =1048576
44(12-19 22:00:37):Half-baked MSG m_nSize = 73,Point = 1387,m_nBufferSize =1048576
45(12-19 22:00:37):Half-baked MSG m_nSize = 256,Point = 1204,m_nBufferSize =1048576
46(12-19 22:00:44):Half-baked MSG m_nSize = 73,Point = 1387,m_nBufferSize =1048576
47(12-19 22:00:44):Half-baked MSG m_nSize = 73,Point = 1387,m_nBufferSize =1048576
48(12-19 22:00:44):Half-baked MSG m_nSize = 73,Point = 1387,m_nBufferSize =1048576
49(12-19 22:00:44):Half-baked MSG m_nSize = 73,Point = 1387,m_nBufferSize =1048576
50(12-19 22:00:44):Half-baked MSG m_nSize = 73,Point = 1387,m_nBufferSize =1048576
51(12-19 22:00:44):Half-baked MSG m_nSize = 73,Point = 1387,m_nBufferSize =1048576
52(12-19 22:00:44):Half-baked MSG m_nSize = 73,Point = 1387,m_nBufferSize =1048576
53(12-19 22:00:44):Half-baked MSG m_nSize = 73,Point = 1387,m_nBufferSize =1048576
54(12-19 22:00:44):Half-baked MSG m_nSize = 42,Point = 1418,m_nBufferSize =1048576
55(12-19 22:01:08):Half-baked MSG m_nSize = 18,Point = 1442,m_nBufferSize =1048576
56(12-19 22:01:45):Half-baked MSG m_nSize = 73,Point = 1387,m_nBufferSize =1048576
57(12-19 22:02:00):Half-baked MSG m_nSize = 71,Point = 1389,m_nBufferSize =1048576
58(12-19 22:02:00):Half-baked MSG m_nSize = 71,Point = 1389,m_nBufferSize =1048576
59(12-19 22:02:00):Half-baked MSG m_nSize = 71,Point = 1389,m_nBufferSize =1048576
60(12-19 22:03:05):Half-baked MSG m_nSize = 63,Point = 1397,m_nBufferSize =1048576
61(12-19 22:03:26):Half-baked MSG m_nSize = 1460,Point = 0,m_nBufferSize =1048576
62(12-19 22:03:26):Half-baked MSG m_nSize = 2920,Point = 0,m_nBufferSize =1048576
63(12-19 22:03:26):Half-baked MSG m_nSize = 4380,Point = 0,m_nBufferSize =1048576
64(12-19 22:04:27):Half-baked MSG m_nSize = 34,Point = 1426,m_nBufferSize =1048576
65(12-19 22:04:34):Half-baked MSG m_nSize = 4380,Point = 0,m_nBufferSize =1048576
66(12-19 22:05:40):Half-baked MSG m_nSize = 55,Point = 1405,m_nBufferSize =1048576
67(12-19 22:05:40):Half-baked MSG m_nSize = 145,Point = 1370,m_nBufferSize =1048576
68(12-19 22:06:06):Half-baked MSG m_nSize = 154,Point = 1306,m_nBufferSize =1048576
69(12-19 22:06:56):Half-baked MSG m_nSize = 73,Point = 1387,m_nBufferSize =1048576
70(12-19 22:07:00):Half-baked MSG m_nSize = 321,Point = 1139,m_nBufferSize =1048576
71(12-19 22:07:00):Half-baked MSG m_nSize = 73,Point = 1387,m_nBufferSize =1048576
72(12-19 22:07:00):Half-baked MSG m_nSize = 73,Point = 1387,m_nBufferSize =1048576
73(12-19 22:07:00):Half-baked MSG m_nSize = 73,Point = 1387,m_nBufferSize =1048576
74(12-19 22:07:00):Half-baked MSG m_nSize = 73,Point = 1387,m_nBufferSize =1048576
75(12-19 22:07:12):Half-baked MSG m_nSize = 56,Point = 1404,m_nBufferSize =1048576
76(12-19 22:07:14):Half-baked MSG m_nSize = 470,Point = 990,m_nBufferSize =1048576
77(12-19 22:07:14):Half-baked MSG m_nSize = 78,Point = 1382,m_nBufferSize =1048576
78(12-19 22:07:15):Half-baked MSG m_nSize = 478,Point = 982,m_nBufferSize =1048576
79(12-19 22:07:16):Half-baked MSG m_nSize = 73,Point = 1387,m_nBufferSize =1048576
80(12-19 22:07:16):Half-baked MSG m_nSize = 73,Point = 1387,m_nBufferSize =1048576
81(12-19 22:07:16):Half-baked MSG m_nSize = 74,Point = 1386,m_nBufferSize =1048576
82(12-19 22:07:16):Half-baked MSG m_nSize = 74,Point = 1386,m_nBufferSize =1048576
83(12-19 22:07:16):Half-baked MSG m_nSize = 73,Point = 1387,m_nBufferSize =1048576
84(12-19 22:07:16):Half-baked MSG m_nSize = 73,Point = 1387,m_nBufferSize =1048576
85(12-19 22:07:16):Half-baked MSG m_nSize = 73,Point = 1387,m_nBufferSize =1048576
86(12-19 22:07:16):Half-baked MSG m_nSize = 73,Point = 1387,m_nBufferSize =1048576
87(12-19 22:07:21):Half-baked MSG m_nSize = 41,Point = 1419,m_nBufferSize =1048576
88(12-19 22:07:24):Half-baked MSG m_nSize = 304,Point = 1156,m_nBufferSize =1048576
89(12-19 22:08:23):Half-baked MSG m_nSize = 20,Point = 1440,m_nBufferSize =1048576
90(12-19 22:08:24):Half-baked MSG m_nSize = 218,Point = 1242,m_nBufferSize =1048576
91(12-19 22:08:32):Half-baked MSG m_nSize = 199,Point = 1261,m_nBufferSize =1048576
92(12-19 22:09:47):Half-baked MSG m_nSize = 412,Point = 1048,m_nBufferSize =1048576
93(12-19 22:10:04):Half-baked MSG m_nSize = 414,Point = 1046,m_nBufferSize =1048576
94(12-19 22:10:14):Half-baked MSG m_nSize = 406,Point = 1054,m_nBufferSize =1048576
95(12-19 22:10:14):Half-baked MSG m_nSize = 79,Point = 1381,m_nBufferSize =1048576
96(12-19 22:10:14):Half-baked MSG m_nSize = 82,Point = 1378,m_nBufferSize =1048576
97(12-19 22:10:14):Half-baked MSG m_nSize = 248,Point = 1212,m_nBufferSize =1048576
98(12-19 22:10:16):Half-baked MSG m_nSize = 72,Point = 1388,m_nBufferSize =1048576
99(12-19 22:10:16):Half-baked MSG m_nSize = 73,Point = 1387,m_nBufferSize =1048576
100(12-19 22:10:16):Half-baked MSG m_nSize = 73,Point = 1387,m_nBufferSize =1048576
101(12-19 22:10:36):Half-baked MSG m_nSize = 73,Point = 1387,m_nBufferSize =1048576
102(12-19 22:10:44):Half-baked MSG m_nSize = 386,Point = 1074,m_nBufferSize =1048576
103(12-19 22:10:51):Half-baked MSG m_nSize = 331,Point = 1129,m_nBufferSize =1048576
104(12-19 22:10:53):Half-baked MSG m_nSize = 72,Point = 1388,m_nBufferSize =1048576
105(12-19 22:10:53):Half-baked MSG m_nSize = 73,Point = 1387,m_nBufferSize =1048576
106(12-19 22:10:53):Half-baked MSG m_nSize = 73,Point = 1387,m_nBufferSize =1048576
107(12-19 22:10:53):Half-baked MSG m_nSize = 74,Point = 1386,m_nBufferSize =1048576
108(12-19 22:10:53):Half-baked MSG m_nSize = 258,Point = 1202,m_nBufferSize =1048576
109(12-19 22:10:53):Half-baked MSG m_nSize = 74,Point = 1386,m_nBufferSize =1048576
110(12-19 22:10:53):Half-baked MSG m_nSize = 73,Point = 1387,m_nBufferSize =1048576
111(12-19 22:10:57):Half-baked MSG m_nSize = 71,Point = 1389,m_nBufferSize =1048576
112(12-19 22:11:07):Half-baked MSG m_nSize = 18,Point = 1442,m_nBufferSize =1048576
113(12-19 22:11:11):Half-baked MSG m_nSize = 52,Point = 1408,m_nBufferSize =1048576
114(12-19 22:11:15):Half-baked MSG m_nSize = 52,Point = 1408,m_nBufferSize =1048576
115(12-19 22:11:36):Half-baked MSG m_nSize = 293,Point = 1167,m_nBufferSize =1048576
116(12-19 22:11:36):Half-baked MSG m_nSize = 82,Point = 1378,m_nBufferSize =1048576
117(12-19 22:11:36):Half-baked MSG m_nSize = 80,Point = 1380,m_nBufferSize =1048576
118(12-19 22:11:36):Half-baked MSG m_nSize = 321,Point = 1139,m_nBufferSize =1048576
119(12-19 22:11:38):Half-baked MSG m_nSize = 73,Point = 1387,m_nBufferSize =1048576
120(12-19 22:11:38):Half-baked MSG m_nSize = 258,Point = 1202,m_nBufferSize =1048576
121(12-19 22:12:49):Half-baked MSG m_nSize = 370,Point = 1090,m_nBufferSize =1048576
122(12-19 22:12:50):Half-baked MSG m_nSize = 353,Point = 1107,m_nBufferSize =1048576
123(12-19 22:12:59):Half-baked MSG m_nSize = 459,Point = 1001,m_nBufferSize =1048576
124(12-19 22:13:07):Half-baked MSG m_nSize = 447,Point = 1013,m_nBufferSize =1048576
125(12-19 22:13:11):Half-baked MSG m_nSize = 398,Point = 1062,m_nBufferSize =1048576
126(12-19 22:13:15):Half-baked MSG m_nSize = 284,Point = 1176,m_nBufferSize =1048576
127(12-19 22:13:19):Half-baked MSG m_nSize = 419,Point = 1041,m_nBufferSize =1048576
128(12-19 22:13:35):Half-baked MSG m_nSize = 401,Point = 1059,m_nBufferSize =1048576
129(12-19 22:13:40):Half-baked MSG m_nSize = 56,Point = 1404,m_nBufferSize =1048576
130(12-19 22:13:52):Half-baked MSG m_nSize = 57,Point = 1403,m_nBufferSize =1048576
131(12-19 22:14:03):Half-baked MSG m_nSize = 384,Point = 1076,m_nBufferSize =1048576
132(12-19 22:14:03):Half-baked MSG m_nSize = 80,Point = 1380,m_nBufferSize =1048576
133(12-19 22:14:06):Half-baked MSG m_nSize = 256,Point = 1204,m_nBufferSize =1048576
134(12-19 22:14:16):Half-baked MSG m_nSize = 376,Point = 1084,m_nBufferSize =1048576
135(12-19 22:14:17):Half-baked MSG m_nSize = 478,Point = 982,m_nBufferSize =1048576
136(12-19 22:14:20):Half-baked MSG m_nSize = 382,Point = 1078,m_nBufferSize =1048576
137(12-19 22:14:24):Half-baked MSG m_nSize = 41,Point = 1419,m_nBufferSize =1048576
138(12-19 22:14:28):Half-baked MSG m_nSize = 355,Point = 1105,m_nBufferSize =1048576
139(12-19 22:14:32):Half-baked MSG m_nSize = 74,Point = 1386,m_nBufferSize =1048576
140(12-19 22:14:38):Half-baked MSG m_nSize = 57,Point = 1403,m_nBufferSize =1048576
141(12-19 22:14:57):Half-baked MSG m_nSize = 30,Point = 1430,m_nBufferSize =1048576
142(12-19 22:15:19):Half-baked MSG m_nSize = 193,Point = 1267,m_nBufferSize =1048576
143(12-19 22:15:25):Half-baked MSG m_nSize = 324,Point = 1136,m_nBufferSize =1048576
144(12-19 22:15:48):Half-baked MSG m_nSize = 174,Point = 1286,m_nBufferSize =1048576
145(12-19 22:15:55):Half-baked MSG m_nSize = 294,Point = 1166,m_nBufferSize =1048576
146(12-19 22:15:57):Half-baked MSG m_nSize = 74,Point = 1386,m_nBufferSize =1048576
147(12-19 22:15:57):Half-baked MSG m_nSize = 73,Point = 1387,m_nBufferSize =1048576
148(12-19 22:15:58):Half-baked MSG m_nSize = 73,Point = 1387,m_nBufferSize =1048576
149(12-19 22:15:58):Half-baked MSG m_nSize = 73,Point = 1387,m_nBufferSize =1048576
150(12-19 22:16:27):Half-baked MSG m_nSize = 87,Point = 1373,m_nBufferSize =1048576
151(12-19 22:16:41):Half-baked MSG m_nSize = 357,Point = 1103,m_nBufferSize =1048576
152(12-19 22:16:46):Half-baked MSG m_nSize = 296,Point = 1164,m_nBufferSize =1048576
153(12-19 22:16:47):Half-baked MSG m_nSize = 26,Point = 1434,m_nBufferSize =1048576
154(12-19 22:16:47):Half-baked MSG m_nSize = 80,Point = 1380,m_nBufferSize =1048576
155(12-19 22:16:48):Half-baked MSG m_nSize = 13,Point = 1447,m_nBufferSize =1048576
156(12-19 22:16:50):Half-baked MSG m_nSize = 433,Point = 1027,m_nBufferSize =1048576
157(12-19 22:16:50):Half-baked MSG m_nSize = 256,Point = 1204,m_nBufferSize =1048576
158(12-19 22:16:50):Half-baked MSG m_nSize = 73,Point = 1387,m_nBufferSize =1048576
159(12-19 22:16:50):Half-baked MSG m_nSize = 73,Point = 1387,m_nBufferSize =1048576
160(12-19 22:16:50):Half-baked MSG m_nSize = 74,Point = 1386,m_nBufferSize =1048576
161(12-19 22:16:50):Half-baked MSG m_nSize = 74,Point = 1386,m_nBufferSize =1048576
162(12-19 22:16:50):Half-baked MSG m_nSize = 73,Point = 1387,m_nBufferSize =1048576
163(12-19 22:16:50):Half-baked MSG m_nSize = 256,Point = 1204,m_nBufferSize =1048576
164(12-19 22:16:50):Half-baked MSG m_nSize = 73,Point = 1387,m_nBufferSize =1048576
165(12-19 22:16:51):Half-baked MSG m_nSize = 52,Point = 1408,m_nBufferSize =1048576
166(12-19 22:17:11):Half-baked MSG m_nSize = 59,Point = 1401,m_nBufferSize =1048576
167(12-19 22:17:22):Half-baked MSG m_nSize = 48,Point = 1412,m_nBufferSize =1048576
168(12-19 22:17:44):Half-baked MSG m_nSize = 36,Point = 1424,m_nBufferSize =1048576
169(12-19 22:17:52):Half-baked MSG m_nSize = 186,Point = 1274,m_nBufferSize =1048576
170(12-19 22:17:55):Half-baked MSG m_nSize = 247,Point = 1213,m_nBufferSize =1048576
171(12-19 22:18:01):Half-baked MSG m_nSize = 286,Point = 1174,m_nBufferSize =1048576
172(12-19 22:18:02):Half-baked MSG m_nSize = 228,Point = 1232,m_nBufferSize =1048576
173(12-19 22:18:30):Half-baked MSG m_nSize = 160,Point = 1300,m_nBufferSize =1048576
174(12-19 22:18:34):Half-baked MSG m_nSize = 267,Point = 1193,m_nBufferSize =1048576
175(12-19 22:18:34):Half-baked MSG m_nSize = 88,Point = 1372,m_nBufferSize =1048576
176(12-19 22:18:36):Half-baked MSG m_nSize = 256,Point = 1204,m_nBufferSize =1048576
177(12-19 22:18:36):Half-baked MSG m_nSize = 73,Point = 1387,m_nBufferSize =1048576
178(12-19 22:18:36):Half-baked MSG m_nSize = 438,Point = 1022,m_nBufferSize =1048576
179(12-19 22:18:46):Half-baked MSG m_nSize = 28,Point = 1432,m_nBufferSize =1048576
180(12-19 22:19:04):Half-baked MSG m_nSize = 80,Point = 1380,m_nBufferSize =1048576
181(12-19 22:19:04):Half-baked MSG m_nSize = 54,Point = 1406,m_nBufferSize =1048576
182(12-19 22:19:05):Half-baked MSG m_nSize = 49,Point = 1411,m_nBufferSize =1048576
183(12-19 22:19:05):Half-baked MSG m_nSize = 73,Point = 1387,m_nBufferSize =1048576
184(12-19 22:19:05):Half-baked MSG m_nSize = 73,Point = 1387,m_nBufferSize =1048576
185(12-19 22:19:05):Half-baked MSG m_nSize = 73,Point = 1387,m_nBufferSize =1048576
186(12-19 22:19:16):Half-baked MSG m_nSize = 751,Point = 709,m_nBufferSize =1048576
187(12-19 22:19:33):Half-baked MSG m_nSize = 57,Point = 1403,m_nBufferSize =1048576
188(12-19 22:19:34):Half-baked MSG m_nSize = 30,Point = 1430,m_nBufferSize =1048576
189(12-19 22:19:41):Half-baked MSG m_nSize = 80,Point = 1380,m_nBufferSize =1048576
190(12-19 22:19:45):Half-baked MSG m_nSize = 386,Point = 1074,m_nBufferSize =1048576
191(12-19 22:19:45):Half-baked MSG m_nSize = 72,Point = 1388,m_nBufferSize =1048576
192(12-19 22:19:45):Half-baked MSG m_nSize = 74,Point = 1386,m_nBufferSize =1048576
193(12-19 22:19:45):Half-baked MSG m_nSize = 74,Point = 1386,m_nBufferSize =1048576
194(12-19 22:19:45):Half-baked MSG m_nSize = 73,Point = 1387,m_nBufferSize =1048576
195(12-19 22:19:47):Half-baked MSG m_nSize = 27,Point = 1433,m_nBufferSize =1048576
196(12-19 22:20:53):Half-baked MSG m_nSize = 8,Point = 1452,m_nBufferSize =1048576
197(12-19 22:20:54):Half-baked MSG m_nSize = 73,Point = 1387,m_nBufferSize =1048576
198(12-19 22:20:54):Half-baked MSG m_nSize = 73,Point = 1387,m_nBufferSize =1048576
199(12-19 22:20:54):Half-baked MSG m_nSize = 73,Point = 1387,m_nBufferSize =1048576
200(12-19 22:20:54):Half-baked MSG m_nSize = 73,Point = 1387,m_nBufferSize =1048576
201(12-19 22:20:54):Half-baked MSG m_nSize = 73,Point = 1387,m_nBufferSize =1048576
202(12-19 22:20:54):Half-baked MSG m_nSize = 53,Point = 1407,m_nBufferSize =1048576
203(12-19 22:20:54):Half-baked MSG m_nSize = 73,Point = 1387,m_nBufferSize =1048576
204(12-19 22:20:54):Half-baked MSG m_nSize = 73,Point = 1387,m_nBufferSize =1048576
205(12-19 22:20:54):Half-baked MSG m_nSize = 256,Point = 1204,m_nBufferSize =1048576
206(12-19 22:21:00):Half-baked MSG m_nSize = 262,Point = 1198,m_nBufferSize =1048576
207(12-19 22:21:07):Half-baked MSG m_nSize = 176,Point = 1284,m_nBufferSize =1048576
208(12-19 22:21:08):Half-baked MSG m_nSize = 31,Point = 1429,m_nBufferSize =1048576
209(12-19 22:21:12):Half-baked MSG m_nSize = 99,Point = 1361,m_nBufferSize =1048576
210(12-19 22:21:12):Half-baked MSG m_nSize = 73,Point = 1387,m_nBufferSize =1048576
211(12-19 22:21:12):Half-baked MSG m_nSize = 73,Point = 1387,m_nBufferSize =1048576
212(12-19 22:21:12):Half-baked MSG m_nSize = 73,Point = 1387,m_nBufferSize =1048576
213(12-19 22:24:18):Half-baked MSG m_nSize = 20,Point = 1440,m_nBufferSize =1048576
214(12-19 22:45:05):the Client socket thread Quit.
215(12-19 22:45:05):the Client socket Net_main_thread Quit.